{
  "project_info": {
    "project_number": "385067414841",
    "project_id": "binar-academy-929dc",
    "storage_bucket": "binar-academy-929dc.appspot.com"
  },
  "client": [
    {
      "client_info": {
        "mobilesdk_app_id": "1:385067414841:android:79c0bdcb14e74f23dde4e8",
        "android_client_info": {
          "package_name": "com.example.challengechapter5"
        }
      },
      "oauth_client": [],
      "api_key": [
        {
          "current_key": "AIzaSyDZ9uuJHa2ifSisyEE-M2jZ9sLYvZyPf-8"
        }
      ],
      "services": {
        "appinvite_service": {
          "other_platform_oauth_client": []
        }
      }
    }
  ],
  "configuration_version": "1"
}